{
	"status": 200,
	"message": "OK",
	"elapsed": 89,
	"list": [{
		"pReqNo":"BFA043161C",
		"reqSubmitTime": "2017/02/11周四",
		"quotEndTime": "2017/02/12周五",
		"remainderTime": "2天3小时58分"
	},{
		"pReqNo":"BFA043161C",
		"reqSubmitTime": "2017/02/11周四",
		"quotEndTime": "2017/02/12周五",
		"remainderTime": "报价结束"
	}],
	"pageIndex": 1,
	"pageSize": 10,
	"totalRecords": 1000,
	"totalPages": 100
}