{
	"status": 200,
	"message": "OK",
	"elapsed": 89,
	"list": [{
		"pReqNo":"BFA043161C",
		"maker": "张小",
		"reqSubmitTime": "2017/02/11周四",
		"quotEndTime": "2017/02/12周五",
		"remainderTime":"2天3小时58分",
		"quotDrugQuantity":"65/80",
		"quotSupplier":"8/10"
	},{
		"pReqNo":"BFA043161b",
		"maker": "张小",
		"reqSubmitTime": "2017/02/11周四",
		"quotEndTime": "2017/02/12周五",
		"remainderTime":"报价结束",
		"quotDrugQuantity":"65/80",
		"quotSupplier":"8/10"
	}],
	"pageIndex": 1,
	"pageSize": 10,
	"totalRecords": 1000,
	"totalPages": 100
}