{
	"status": 200,
	"message": "OK",
	"elapsed": 89,
	"list": [{
		"drugSno":"043161",
		"baseName": "阿斯匹林",
		"drugSpecific": "25mg",
		"units": "瓶",
		"proManufactor": "武汉太福制药有限公司",
		"quantity": "600",
		"unitPrice": "￥12.3",
		"singlePrice": "￥6426",
		"batch": "20161017",
		"validTime": "2019/12",
		"packQuantity": "300",
		"integerQuantity": "2",
		"scatteredQuantity": "0",
		"deliveryQuantity": "600"
	},{
		"drugSno":"043161",
		"baseName": "阿斯匹林",
		"drugSpecific": "25mg",
		"units": "瓶",
		"proManufactor": "武汉太福制药有限公司",
		"quantity": "600",
		"unitPrice": "￥12.3",
		"singlePrice": "￥6426",
		"batch": "20161017",
		"validTime": "2019/12",
		"packQuantity": "300",
		"integerQuantity": "2",
		"scatteredQuantity": "0",
		"deliveryQuantity": "600"
	},{
		"drugSno":"043161",
		"baseName": "阿斯匹林",
		"drugSpecific": "25mg",
		"units": "瓶",
		"proManufactor": "武汉太福制药有限公司",
		"quantity": "600",
		"unitPrice": "￥12.3",
		"singlePrice": "￥6426",
		"batch": "20161017",
		"validTime": "2019/12",
		"packQuantity": "300",
		"integerQuantity": "2",
		"scatteredQuantity": "0",
		"deliveryQuantity": "600"
	},{
		"drugSno":"043161",
		"baseName": "阿斯匹林",
		"drugSpecific": "25mg",
		"units": "瓶",
		"proManufactor": "武汉太福制药有限公司",
		"quantity": "600",
		"unitPrice": "￥12.3",
		"singlePrice": "￥6426",
		"batch": "20161017",
		"validTime": "2019/12",
		"packQuantity": "300",
		"integerQuantity": "2",
		"scatteredQuantity": "0",
		"deliveryQuantity": "600"
	},{
		"drugSno":"043161",
		"baseName": "阿斯匹林",
		"drugSpecific": "25mg",
		"units": "瓶",
		"proManufactor": "武汉太福制药有限公司",
		"quantity": "600",
		"unitPrice": "￥12.3",
		"singlePrice": "￥6426",
		"batch": "20161017",
		"validTime": "2019/12",
		"packQuantity": "300",
		"integerQuantity": "2",
		"scatteredQuantity": "0",
		"deliveryQuantity": "600"
	}],
	"pageIndex": 1,
	"pageSize": 10,
	"totalRecords": 1000,
	"totalPages": 100
}