{
	"status": 200,
	"message": "OK",
	"elapsed": 89,
	"list": [{
		"contractNo":"65455454",
		"subOrderNo": "z24455454",
		"contractCompany": "厦门市第一医院",
		"contractState": "未签订",
		"contractTime": "2017/02/25周一"
	},{
		"contractNo":"55455454",
		"subOrderNo": "z24455454",
		"contractCompany": "厦门市第一医院",
		"contractState": "签订",
		"contractTime": "2017/02/25周一"
	},{
		"contractNo":"45455454",
		"subOrderNo": "z24455454",
		"contractCompany": "厦门市第一医院",
		"contractState": "签订",
		"contractTime": "2017/02/25周一"
	},{
		"contractNo":"35455454",
		"subOrderNo": "z24455454",
		"contractCompany": "厦门市第一医院",
		"contractState": "签订",
		"contractTime": "2017/02/25周一"
	},{
		"contractNo":"25455454",
		"subOrderNo": "z24455454",
		"contractCompany": "厦门市第一医院",
		"contractState": "签订",
		"contractTime": "2017/02/25周一"
	}],
	"pageIndex": 1,
	"pageSize": 10,
	"totalRecords": 1000,
	"totalPages": 100
}