{
	"status": 200,
	"message": "OK",
	"elapsed": 89,
	"list": [{
		"oNo":"345043161",
		"oName": "需求——2017.5——订单",
		"contractState": "5/10",
		"submitTime": "2017/5/3"
	},{
		"oNo":"245043161",
		"oName": "需求——2017.5——订单",
		"contractState": "5/10",
		"submitTime": "2017/5/3"
	},{
		"oNo":"145043161",
		"oName": "需求——2017.5——订单",
		"contractState": "5/10",
		"submitTime": "2017/5/3"
	},{
		"oNo":"245043161",
		"oName": "需求——2017.5——订单",
		"contractState": "5/10",
		"submitTime": "2017/5/3"
	},{
		"oNo":"145043161",
		"oName": "需求——2017.5——订单",
		"contractState": "5/10",
		"submitTime": "2017/5/3"
	}],
	"pageIndex": 1,
	"pageSize": 10,
	"totalRecords": 1000,
	"totalPages": 100
}