{
	"status": 200,
	"message": "OK",
	"elapsed": 89,
	"list": [{
		"contractNo":"345043161",
		"oName": "需求——2017.5——订单",
		"state": "未签订",
		"supplyName": "江西医药有限公司"
	},{
		"contractNo":"345043161",
		"oName": "需求——2017.5——订单",
		"state": "签订",
		"supplyName": "江西医药有限公司"
	},{
		"contractNo":"345043161",
		"oName": "需求——2017.5——订单",
		"state": "未签订",
		"supplyName": "江西医药有限公司"
	},{
		"contractNo":"345043161",
		"oName": "需求——2017.5——订单",
		"state": "未签订",
		"supplyName": "江西医药有限公司"
	}],
	"pageIndex": 1,
	"pageSize": 10,
	"totalRecords": 1000,
	"totalPages": 100
}