{
	"status": 200,
	"message": "OK",
	"elapsed": 89,
	"list": [{
		"sno":"3043161",
		"baseName":"阿斯匹林",
		"dose": "25mg",
		"specification": "100s/瓶",
		"proManufactor": "湖北药业有限公司",
		"minStock":"600",
		"maxStock":"600",
		"stock":"600",
		"warnStock":"600"
	},{
		"sno":"5043161",
		"baseName":"康泰克",
		"dose": "25mg",
		"specification": "100s/瓶",
		"proManufactor": "湖北药业有限公司",
		"minStock":"600",
		"maxStock":"600",
		"stock":"600",
		"warnStock":"600",
		"level": 3
	},{
		"sno":"3043161",
		"baseName":"复方利血片",
		"dose": "25mg",
		"specification": "100s/瓶",
		"proManufactor": "湖北药业有限公司",
		"minStock":"600",
		"maxStock":"600",
		"stock":"600",
		"warnStock":"600",
		"level": 2
	},{
		"sno":"10431611",
		"baseName":"黄体酮注射液",
		"dose": "25mg",
		"specification": "100s/瓶",
		"proManufactor": "湖北药业有限公司",
		"minStock":"600",
		"maxStock":"600",
		"stock":"600",
		"warnStock":"600",
		"level": 1
	},{
		"sno":"80431618",
		"baseName":"维C银翘片",
		"dose": "25mg",
		"specification": "100s/瓶",
		"proManufactor": "湖北药业有限公司",
		"minStock":"600",
		"maxStock":"600",
		"stock":"600",
		"warnStock":"600"
	},{
		"sno":"70431616",
		"baseName":"阿斯匹林",
		"dose": "25mg",
		"specification": "100s/瓶",
		"proManufactor": "湖北药业有限公司",
		"minStock":"600",
		"maxStock":"600",
		"stock":"600",
		"warnStock":"600"
	}],
	"pageIndex": 1,
	"pageSize": 10,
	"totalRecords": 1000,
	"totalPages": 100
}