{
	"status": 200,
	"message": "OK",
	"elapsed": 89,
	"list": [{
		"subOrderNo":"43546541",
		"supplier":"遵义药业有限公司",
		"placeOrderTime":"2017/02/05周一",
		"state":"待确认"
	},{
		"subOrderNo":"43546541",
		"supplier":"遵义药业有限公司",
		"placeOrderTime":"2017/02/05周一",
		"state":"派送中"
	},{
		"subOrderNo":"43546541",
		"supplier":"遵义药业有限公司",
		"placeOrderTime":"2017/02/05周一",
		"state":"已收货"
	},{
		"subOrderNo":"43546541",
		"supplier":"遵义药业有限公司",
		"placeOrderTime":"2017/02/05周一",
		"state":"已支付"
	},{
		"subOrderNo":"43546541",
		"supplier":"遵义药业有限公司",
		"placeOrderTime":"2017/02/05周一",
		"state":"待确认"
	}],
	"pageIndex": 1,
	"pageSize": 10,
	"totalRecords": 1000,
	"totalPages": 100
}