{
	"status": 200,
	"message": "OK",
	"elapsed": 89,
	"list": [{
		"oNo":"37553344",
		"receipt": "9",
		"onRoad": "1",
		"service": "10",
		"totalQuantity": "20"
	},{
		"oNo":"37553344",
		"receipt": "9",
		"onRoad": "1",
		"service": "10",
		"totalQuantity": "20"
	},{
		"oNo":"37553344",
		"receipt": "9",
		"onRoad": "1",
		"service": "10",
		"totalQuantity": "20"
	},{
		"oNo":"37553344",
		"receipt": "9",
		"onRoad": "1",
		"service": "10",
		"totalQuantity": "20"
	},{
		"oNo":"37553344",
		"receipt": "9",
		"onRoad": "1",
		"service": "10",
		"totalQuantity": "20"
	},{
		"oNo":"37553344",
		"receipt": "9",
		"onRoad": "2",
		"service": "10",
		"totalQuantity": "21"
	}],
	"pageIndex": 1,
	"pageSize": 10,
	"totalRecords": 1000,
	"totalPages": 100
}