{
	"status": 200,
	"message": "OK",
	"elapsed": 89,
	"list": [{
		"subOrderNo":"z24455454",
		"placeOrderTime": "2017/02/25周一",
		"orderMoney": "￥300",
		"payWay": "医保支付",
        "contractState": "未签订",
        "operate": "提取"
	},{
		"subOrderNo":"z24455454",
		"placeOrderTime": "2017/02/25周一",
		"orderMoney": "￥300",
		"payWay": "医保支付",
        "contractState": "签订完成",
        "operate": "提取"
	},{
		"subOrderNo":"z24455454",
		"placeOrderTime": "2017/02/25周一",
		"orderMoney": "￥300",
		"payWay": "医保支付",
        "contractState": "签订完成",
        "operate": "提取"
	},{
		"subOrderNo":"z24455454",
		"placeOrderTime": "2017/02/25周一",
		"orderMoney": "￥300",
		"payWay": "医保支付",
        "contractState": "签订完成",
        "operate": "提取"
	},{
		"subOrderNo":"z24455454",
		"placeOrderTime": "2017/02/25周一",
		"orderMoney": "￥300",
		"payWay": "医保支付",
        "contractState": "签订完成",
        "operate": "提取"
	}],
	"pageIndex": 1,
	"pageSize": 10,
	"totalRecords": 1000,
	"totalPages": 100
}