{
	"status": 200,
	"message": "OK",
	"elapsed": 89,
	"list": [{
		"oNo":"43546541",
		"oName": "需求——2017.5——订单",
		"submitTime": "2017/5/5",
		"state": "编辑中"
	},{
		"oNo":"43546541",
		"oName": "需求——2017.5——订单",
		"submitTime": "2017/5/6",
		"state": "提交"
	},{
		"oNo":"43546541",
		"oName": "需求——2017.5——订单",
		"submitTime": "2017/5/7",
		"state": "竞价中"
	}],
	"pageIndex": 1,
	"pageSize": 10,
	"totalRecords": 1000,
	"totalPages": 100
}