{
	"status": 200,
	"message": "OK",
	"elapsed": 89,
	"list": [{
		"on": false,
		"emphasizeBg":true,
		"drugSno":"043161",
		"baseName":"阿斯匹林",
		"dose": "25mg",
		"specification": "100s/瓶",
		"proManufactor": "武汉太福制药有限公司",
		"oNumber":"600",
		"minMoney":"￥12.3",
		"singlePrice":"￥6426",
		"hcpd":"￥500",
		"hangNet":true,
		"packQuantity":"300",
		"integerQuantity":"5",
		"scatteredQuantity":"130",
		"drugSpecific":"25mg*100s",
		"distributeTime":"2小时",
		"selectorMode":"品牌最低价",
		"prickle":"瓶",
		"quantity":"600",
		"subOrderNo":"Zdfgtrhey_BFA043161C",
		"supplier":"遵义药业有限公司",
		"placeOrderTime":"2017/02/05周一",
		"orderMoney":"￥600.00",
		"payWay":"医保支付",
		"orderStatus":"待确认",
		"operate":true,
		"contractState":"签订完成",
		"clQuotation":"￥12345.00",
		"validity":"2019/12",
		"sPrice":"￥12.3",
		"batch":"20161017",
		"deliveredQuantity":"600",
		"actualQuantityReceived":"600",
		"distributeTime":"2小时"
	},{
		"on": false,
		"emphasizeBg":true,
		"drugSno":"",
		"baseName":"",
		"dose": "",
		"specification": false,
		"proManufactor": "江苏制药有限公司",
		"oNumber":"600",
		"minMoney":"￥12.3",
		"singlePrice":"￥6426",
		"hcpd":"￥500",
		"hangNet":true,
		"packQuantity":"300",
		"integerQuantity":"5",
		"scatteredQuantity":"130",
		"drugSpecific":"25mg*100s",
		"distributeTime":"2小时",
		"selectorMode":"品牌最低价",
		"prickle":"瓶",
		"quantity":"600",
		"subOrderNo":"Zdfgtrhey_BFA043161C",
		"supplier":"遵义药业有限公司",
		"placeOrderTime":"2017/02/05周一",
		"orderMoney":"￥600.00",
		"payWay":"医保支付",
		"orderStatus":"待确认",
		"operate":true,
		"contractState":"签订中",
		"clQuotation":"￥12345.00",
		"validity":"2019/12",
		"sPrice":"￥12.3",
		"batch":"20161017",
		"deliveredQuantity":"600",
		"actualQuantityReceived":"500",
		"distributeTime":"2小时"
	},{
		"on": false,
		"emphasizeBg":true,
		"drugSno":"",
		"baseName":"",
		"dose": "",
		"specification": false,
		"proManufactor": "德瑞克药有限公司",
		"oNumber":"600",
		"minMoney":"￥12.3",
		"singlePrice":"￥6426",
		"hcpd":"￥500",
		"hangNet":true,
		"packQuantity":"300",
		"integerQuantity":"5",
		"scatteredQuantity":"130",
		"drugSpecific":"25mg*100s",
		"distributeTime":"2小时",
		"selectorMode":"品牌最低价",
		"prickle":"瓶",
		"quantity":"600",
		"subOrderNo":"Zdfgtrhey_BFA043161C",
		"supplier":"遵义药业有限公司",
		"placeOrderTime":"2017/02/05周一",
		"orderMoney":"￥600.00",
		"payWay":"医保支付",
		"orderStatus":"待确认",
		"operate":true,
		"contractState":"签订中",
		"clQuotation":"￥12345.00",
		"validity":"2019/12",
		"sPrice":"￥12.3",
		"batch":"20161017",
		"deliveredQuantity":"600",
		"actualQuantityReceived":"500",
		"distributeTime":"2小时"
	},{
		"on": false,
		"emphasizeBg":false,
		"drugSno":"043161",
		"baseName":"康泰克",
		"dose": "糖衣",
		"specification": true,
		"proManufactor": "德瑞克药有限公司",
		"oNumber":"600",
		"minMoney":"￥12.3",
		"singlePrice":"￥6426",
		"hcpd":"￥500",
		"hangNet":true,
		"packQuantity":"300",
		"integerQuantity":"5",
		"scatteredQuantity":"130",
		"drugSpecific":"25mg*100s",
		"distributeTime":"2小时",
		"selectorMode":"品牌最低价",
		"prickle":"瓶",
		"quantity":"600",
		"subOrderNo":"Zdfgtrhey_BFA043161C",
		"supplier":"遵义药业有限公司",
		"placeOrderTime":"2017/02/05周一",
		"orderMoney":"￥600.00",
		"payWay":"医保支付",
		"orderStatus":"待确认",
		"operate":true,
		"contractState":"签订中",
		"clQuotation":"￥12345.00",
		"validity":"2019/12",
		"sPrice":"￥12.3",
		"batch":"20161017",
		"deliveredQuantity":"600",
		"actualQuantityReceived":"500",
		"distributeTime":"2小时"
	},{
		"on": false,
		"emphasizeBg":false,
		"drugSno":"043161",
		"baseName":"康泰克",
		"dose": "糖衣",
		"specification": true,
		"proManufactor": "德瑞克药有限公司",
		"oNumber":"600",
		"minMoney":"￥12.3",
		"singlePrice":"￥6426",
		"hcpd":"￥500",
		"hangNet":true,
		"packQuantity":"300",
		"integerQuantity":"5",
		"scatteredQuantity":"130",
		"drugSpecific":"25mg*100s",
		"distributeTime":"2小时",
		"selectorMode":"品牌最低价",
		"prickle":"瓶",
		"quantity":"600",
		"subOrderNo":"Zdfgtrhey_BFA043161C",
		"supplier":"遵义药业有限公司",
		"placeOrderTime":"2017/02/05周一",
		"orderMoney":"￥600.00",
		"payWay":"医保支付",
		"orderStatus":"待确认",
		"operate":true,
		"contractState":"签订中",
		"clQuotation":"￥12345.00",
		"validity":"2019/12",
		"sPrice":"￥12.3",
		"batch":"20161017",
		"deliveredQuantity":"600",
		"actualQuantityReceived":"500",
		"distributeTime":"2小时"
	},{
		"on": false,
		"emphasizeBg":false,
		"drugSno":"043161",
		"baseName":"阿斯匹林",
		"dose": "25mg",
		"specification": "100s/瓶",
		"proManufactor": "天士力制药有限公司",
		"oNumber":"600",
		"minMoney":"￥12.3",
		"singlePrice":"￥6426",
		"hcpd":"￥500",
		"hangNet":false,
		"packQuantity":"300",
		"integerQuantity":"5",
		"scatteredQuantity":"130",
		"drugSpecific":"25mg*100s",
		"distributeTime":"2小时",
		"selectorMode":"品牌最低价",
		"prickle":"瓶",
		"quantity":"600",
		"subOrderNo":"Zdfgtrhey_BFA043161C",
		"supplier":"遵义药业有限公司",
		"placeOrderTime":"2017/02/05周一",
		"orderMoney":"￥600.00",
		"payWay":"医保支付",
		"orderStatus":"已收货",
		"operate":false,
		"contractState":"签订中",
		"clQuotation":"￥12345.00",
		"validity":"2019/12",
		"sPrice":"￥12.3",
		"batch":"20161017",
		"deliveredQuantity":"600",
		"actualQuantityReceived":"600",
		"distributeTime":"1小时"
	},{
		"on": true,
		"emphasizeBg":false,
		"drugSno":"043161",
		"baseName":"阿斯匹林",
		"dose": "25mg",
		"specification": "100s/瓶",
		"proManufactor": "天士力制药有限公司",
		"oNumber":"600",
		"minMoney":"￥12.3",
		"singlePrice":"￥6426",
		"hcpd":"￥500",
		"hangNet":false,
		"packQuantity":"300",
		"integerQuantity":"5",
		"scatteredQuantity":"130",
		"drugSpecific":"25mg*100s",
		"distributeTime":"2小时",
		"selectorMode":"品牌最低价",
		"prickle":"瓶",
		"quantity":"600",
		"subOrderNo":"Zdfgtrhey_BFA043161C",
		"supplier":"遵义药业有限公司",
		"placeOrderTime":"2017/02/05周一",
		"orderMoney":"￥600.00",
		"payWay":"医保支付",
		"orderStatus":"已收货",
		"operate":false,
		"contractState":"签订中",
		"clQuotation":"￥12345.00",
		"validity":"2019/12",
		"sPrice":"￥12.3",
		"batch":"20161017",
		"deliveredQuantity":"600",
		"actualQuantityReceived":"600",
		"distributeTime":"2小时"
	},{
		"on": false,
		"emphasizeBg":false,
		"drugSno":"043161",
		"baseName":"康泰克",
		"dose": "糖衣",
		"specification": true,
		"proManufactor": "德瑞克药有限公司",
		"oNumber":"600",
		"minMoney":"￥12.3",
		"singlePrice":"￥6426",
		"hcpd":"￥500",
		"hangNet":true,
		"packQuantity":"300",
		"integerQuantity":"5",
		"scatteredQuantity":"130",
		"drugSpecific":"25mg*100s",
		"distributeTime":"2小时",
		"selectorMode":"品牌最低价",
		"prickle":"瓶",
		"quantity":"600",
		"subOrderNo":"Zdfgtrhey_BFA043161C",
		"supplier":"遵义药业有限公司",
		"placeOrderTime":"2017/02/05周一",
		"orderMoney":"￥600.00",
		"payWay":"医保支付",
		"orderStatus":"待确认",
		"operate":true,
		"contractState":"签订中",
		"clQuotation":"￥12345.00",
		"validity":"2019/12",
		"sPrice":"￥12.3",
		"batch":"20161017",
		"deliveredQuantity":"600",
		"actualQuantityReceived":"500",
		"distributeTime":"3小时"
	},{
		"on": false,
		"emphasizeBg":false,
		"drugSno":"043161",
		"baseName":"康泰克",
		"dose": "糖衣",
		"specification": true,
		"proManufactor": "德瑞克药有限公司",
		"oNumber":"600",
		"minMoney":"￥12.3",
		"singlePrice":"￥6426",
		"hcpd":"￥500",
		"hangNet":true,
		"packQuantity":"300",
		"integerQuantity":"5",
		"scatteredQuantity":"130",
		"drugSpecific":"25mg*100s",
		"distributeTime":"4小时",
		"selectorMode":"品牌最低价",
		"prickle":"瓶",
		"quantity":"600",
		"subOrderNo":"Zdfgtrhey_BFA043161C",
		"supplier":"遵义药业有限公司",
		"placeOrderTime":"2017/02/05周一",
		"orderMoney":"￥600.00",
		"payWay":"医保支付",
		"orderStatus":"待确认",
		"operate":true,
		"contractState":"签订中",
		"clQuotation":"￥12345.00",
		"validity":"2019/12",
		"sPrice":"￥12.3",
		"batch":"20161017",
		"deliveredQuantity":"600",
		"actualQuantityReceived":"500",
		"distributeTime":"5小时"
	}],
	"pageIndex": 1,
	"pageSize": 10,
	"totalRecords": 1000,
	"totalPages": 100

}