{
	"status": 200,
	"message": "OK",
	"elapsed": 89,
	"list": [{
		"drugSno":"043161",
		"baseName":"阿斯匹林",
		"dose":"25mg",
		"specification":"100s/瓶",
		"proManufactor":"武汉太福制药有限公司",
		"quantity":"600",
		"unitPrice":"￥12.3",
		"singlePrice":"￥6426",
		"packQuantity":"500",
		"integerQuantity":"3",
		"scatteredQuantity":"130",
		"drugSpecific":"25mg*100s",
		"distributeTime":"2小时"
	},{
		"drugSno":"043161",
		"baseName":"阿斯匹林",
		"dose":"25mg",
		"specification":"100s/瓶",
		"proManufactor":"武汉太福制药有限公司",
		"quantity":"600",
		"unitPrice":"￥12.3",
		"singlePrice":"￥6426",
		"packQuantity":"500",
		"integerQuantity":"3",
		"scatteredQuantity":"130",
		"drugSpecific":"25mg*100s",
		"distributeTime":"2小时"
	},{
		"drugSno":"043161",
		"baseName":"阿斯匹林",
		"dose":"25mg",
		"specification":"100s/瓶",
		"proManufactor":"武汉太福制药有限公司",
		"quantity":"600",
		"unitPrice":"￥12.3",
		"singlePrice":"￥6426",
		"packQuantity":"500",
		"integerQuantity":"3",
		"scatteredQuantity":"130",
		"drugSpecific":"25mg*100s",
		"distributeTime":"2小时"
	},{
		"drugSno":"043161",
		"baseName":"阿斯匹林",
		"dose":"25mg",
		"specification":"100s/瓶",
		"proManufactor":"武汉太福制药有限公司",
		"quantity":"600",
		"unitPrice":"￥12.3",
		"singlePrice":"￥6426",
		"packQuantity":"500",
		"integerQuantity":"3",
		"scatteredQuantity":"130",
		"drugSpecific":"25mg*100s",
		"distributeTime":"2小时"
	},{
		"drugSno":"043161",
		"baseName":"阿斯匹林",
		"dose":"25mg",
		"specification":"100s/瓶",
		"proManufactor":"武汉太福制药有限公司",
		"quantity":"600",
		"unitPrice":"￥12.3",
		"singlePrice":"￥6426",
		"packQuantity":"500",
		"integerQuantity":"3",
		"scatteredQuantity":"130",
		"drugSpecific":"25mg*100s",
		"distributeTime":"2小时"
	}],
	"pageIndex": 1,
	"pageSize": 10,
	"totalRecords": 1000,
	"totalPages": 100
}