{
	"status": 200,
	"message": "OK",
	"elapsed": 89,
	"list": [{
		"subOrderNo":"Zdfgtrhey_BFA043161C",
		"oNo":"43546541",
		"supplier":"遵义药业有限公司",
		"placeOrderTime":"2017/5/5",
		"orderMoney":"￥3000"
	},{
		"subOrderNo":"Zdfgtrhey_BFA043161C",
		"oNo":"43546541",
		"supplier":"遵义药业有限公司",
		"placeOrderTime":"2017/5/5",
		"orderMoney":"￥3000"
	},{
		"subOrderNo":"Zdfgtrhey_BFA043161C",
		"oNo":"43546541",
		"supplier":"遵义药业有限公司",
		"placeOrderTime":"2017/5/5",
		"orderMoney":"￥3000"
	},{
		"subOrderNo":"Zdfgtrhey_BFA043161C",
		"oNo":"43546541",
		"supplier":"遵义药业有限公司",
		"placeOrderTime":"2017/5/5",
		"orderMoney":"￥3000"
	},{
		"subOrderNo":"Zdfgtrhey_BFA043161C",
		"oNo":"43546541",
		"supplier":"遵义药业有限公司",
		"placeOrderTime":"2017/5/5",
		"orderMoney":"￥3000"
	}],
	"pageIndex": 1,
	"pageSize": 10,
	"totalRecords": 1000,
	"totalPages": 100
}