{
	"status": 200,
	"message": "OK",
	"elapsed": 89,
	"list": [{
		"oNo":"43546541",
		"oName":"需求——2017.5——订单",
		"submitTime":"2017/5/5",
		"deliveryState":"5/10"
	},{
		"oNo":"43546541",
		"oName":"需求——2017.5——订单",
		"submitTime":"2017/5/5",
		"deliveryState":"5/10"
	},{
		"oNo":"43546541",
		"oName":"需求——2017.5——订单",
		"submitTime":"2017/5/5",
		"deliveryState":"5/10"
	},{
		"oNo":"43546541",
		"oName":"需求——2017.5——订单",
		"submitTime":"2017/5/5",
		"deliveryState":"5/10"
	},{
		"oNo":"43546541",
		"oName":"需求——2017.5——订单",
		"submitTime":"2017/5/5",
		"deliveryState":"5/10"
	}],
	"pageIndex": 1,
	"pageSize": 10,
	"totalRecords": 1000,
	"totalPages": 100
}