{
	"status": 200,
	"message": "OK",
	"elapsed": 89,
	"list": [{
		"reqNo":"XQ43546541",
		"reqName":"需求——2017.5紧急采购",
		"lastUpdateTime":"2015/3/2",
		"lastUpdatePerson":"李峰"
	},{
		"reqNo":"XQ43546542",
		"reqName":"需求——2017.5紧急采购",
		"lastUpdateTime":"2015/3/2",
		"lastUpdatePerson":"李峰"
	},{
		"reqNo":"XQ43546543",
		"reqName":"需求——2017.5紧急采购",
		"lastUpdateTime":"2015/3/2",
		"lastUpdatePerson":"李峰"
	},{
		"reqNo":"XQ43546544",
		"reqName":"需求——2017.5紧急采购",
		"lastUpdateTime":"2015/3/2",
		"lastUpdatePerson":"李峰"
	},{
		"reqNo":"XQ43546545",
		"reqName":"需求——2017.5紧急采购",
		"lastUpdateTime":"2015/3/2",
		"lastUpdatePerson":"李峰"
	}],
	"pageIndex": 1,
	"pageSize": 10,
	"totalRecords": 1000,
	"totalPages": 100
}