{
	"status": 200,
	"message": "OK",
	"elapsed": 89,
	"list": [{
		"drugSno":"345043161",
		"baseName":"阿斯匹林",
		"dose":"25mg",
		"specification":"100s/瓶",
		"proManufactor":"武汉太福制药有限公司",
		"quantity":"600",
		"receivedQuantity":"400",
		"unitPrice":"￥6426",
		"singlePrice":"￥500",
		"batch":"20160804",
		"validTime":"2019/12/10",
		"packQuantity":"300",
		"integerQuantity":"3",
		"scatteredQuantity":"5",
		"distributeTime":"2小时"
	},{
		"drugSno":"345043161",
		"baseName":"阿斯匹林",
		"dose":"25mg",
		"specification":"100s/瓶",
		"proManufactor":"武汉太福制药有限公司",
		"quantity":"600",
		"receivedQuantity":"500",
		"unitPrice":"￥6426",
		"singlePrice":"￥500",
		"batch":"20160804",
		"validTime":"2019/12/10",
		"packQuantity":"300",
		"integerQuantity":"3",
		"scatteredQuantity":"5",
		"distributeTime":"2小时"
	},{
		"drugSno":"345043161",
		"baseName":"阿斯匹林",
		"dose":"25mg",
		"specification":"100s/瓶",
		"proManufactor":"武汉太福制药有限公司",
		"quantity":"600",
		"receivedQuantity":"600",
		"unitPrice":"￥6426",
		"singlePrice":"￥500",
		"batch":"20160804",
		"validTime":"2019/12/10",
		"packQuantity":"300",
		"integerQuantity":"3",
		"scatteredQuantity":"5",
		"distributeTime":"2小时"
	},{
		"drugSno":"345043161",
		"baseName":"阿斯匹林",
		"dose":"25mg",
		"specification":"100s/瓶",
		"proManufactor":"武汉太福制药有限公司",
		"quantity":"600",
		"receivedQuantity":"700",
		"unitPrice":"￥6426",
		"singlePrice":"￥500",
		"batch":"20160804",
		"validTime":"2019/12/10",
		"packQuantity":"300",
		"integerQuantity":"3",
		"scatteredQuantity":"5",
		"distributeTime":"2小时"
	}],
	"pageIndex": 1,
	"pageSize": 10,
	"totalRecords": 1000,
	"totalPages": 100
}