{
	"status": 200,
	"message": "OK",
	"elapsed": 89,
	"list": [{
		"drugSno":"345043161",
		"baseName": "阿斯匹林",
		"labelReq": "天士力制药有限公司",
		"dose": "25mg",
		"specification": "100g/瓶",
        "quantity": "300",
        "totalMoney": "",
        "minMoney": "",
        "commonMoney": "",
        "baseMoney": "--",
        "label": ["吉林药业有限公司", "湖北药业有限公司"],
        "packQuantity": "",
        "integerQuantity": "1",
        "scatteredQuantity": "100",
        "drugSpecific": "25mg*100s",
        "distributeTime": "72小时",
        "operate": "替代报价"
	},{
		"drugSno":"345043161",
		"baseName": "阿斯匹林",
		"labelReq": "无",
		"dose": "25mg",
		"specification": "100g/瓶",
        "quantity": "300",
        "totalMoney": "",
        "minMoney": "",
        "commonMoney": "",
        "baseMoney": "￥13.2",
        "label": ["吉林药业有限公司", "湖北药业有限公司"],
        "packQuantity": "",
        "integerQuantity": "1",
        "scatteredQuantity": "100",
        "drugSpecific": "25mg*100s",
        "distributeTime": "72小时",
        "operate": "报价"
	}],
	"pageIndex": 1,
	"pageSize": 10,
	"totalRecords": 1000,
	"totalPages": 100
}